Generally Applicable Gene-set Enrichment (GAGE)
…
Tasks

Part 1: Getting familiar with Gene-sets

The Hallmark get can be found here.

Download Hallmark gene-sets using the msigdbr R package.

#Check available gene sets using msigdbr_collections()
msigdbr_collections()

## # A tibble: 23 × 3
##    gs_cat gs_subcat         num_genesets
##    <chr>  <chr>                    <int>
##  1 C1     ""                         278
##  2 C2     "CGP"                     3368
##  3 C2     "CP"                        29
##  4 C2     "CP:BIOCARTA"              292
##  5 C2     "CP:KEGG"                  186
##  6 C2     "CP:PID"                   196
##  7 C2     "CP:REACTOME"             1604
##  8 C2     "CP:WIKIPATHWAYS"          615
##  9 C3     "MIR:MIR_Legacy"           221
## 10 C3     "MIR:MIRDB"               2377
## # … with 13 more rows
…
Look at Hallmark: check the number of gene-sets, number of genes per gene set…

# Create a nested data (list-column of a data frame) 
n_h_gene_set <- h_gene_set %>%
  group_by(gs_name) %>%
  nest()
# Count no of rows = gene sets
nrow(n_h_gene_set)

## [1] 50

n_h_gene_set

## # A tibble: 50 × 2
## # Groups:   gs_name [50]
##    gs_name                          data               
##    <chr>                            <list>             
##  1 HALLMARK_ADIPOGENESIS            <tibble [208 × 14]>
##  2 HALLMARK_ALLOGRAFT_REJECTION     <tibble [332 × 14]>
##  3 HALLMARK_ANDROGEN_RESPONSE       <tibble [102 × 14]>
##  4 HALLMARK_ANGIOGENESIS            <tibble [36 × 14]> 
##  5 HALLMARK_APICAL_JUNCTION         <tibble [231 × 14]>
##  6 HALLMARK_APICAL_SURFACE          <tibble [46 × 14]> 
##  7 HALLMARK_APOPTOSIS               <tibble [182 × 14]>
##  8 HALLMARK_BILE_ACID_METABOLISM    <tibble [114 × 14]>
##  9 HALLMARK_CHOLESTEROL_HOMEOSTASIS <tibble [77 × 14]> 
## 10 HALLMARK_COAGULATION             <tibble [159 × 14]>
## # … with 40 more rows
…
